3 Results – Post-Secondary Employment Outcomes Analysis
…
Code

pseoe_cipcode_change01to16 <- pseoe_cipcode_change01to16 |>
  arrange(change_med_earning) |>
  select(cipcode_label, degree_label, change_med_earning)

pseoe_cipcode_change01to16 <- pseoe_cipcode_change01to16 |>
  mutate(cipcode_degree_label = paste(cipcode_label, degree_label, sep = " - "))

Code

pseoe_cipcode_change01to16

# A tibble: 542 × 4
   cipcode_label            degree_label change_med_earning cipcode_degree_label
   <chr>                    <fct>                     <dbl> <chr>               
 1 Pharmacy, Pharmaceutica… Baccalaurea…            -73318. Pharmacy, Pharmaceu…
 2 Architecture and Relate… Doctoral - …            -30692  Architecture and Re…
 3 Apparel and Textiles     Associates              -24810  Apparel and Textile…
 4 Pharmacy, Pharmaceutica… Doctoral - …            -23972. Pharmacy, Pharmaceu…
 5 Mining and Petroleum...  Associates              -21539  Mining and Petroleu…
 6 Dance                    Baccalaurea…            -20898  Dance - Baccalaurea…
 7 Legal Professions and... Masters                 -19597  Legal Professions a…
 8 Biology/Biotechnology... Baccalaurea…            -18826  Biology/Biotechnolo…
 9 Science...               Baccalaurea…            -18826  Science... - Baccal…
10 Human Resources...       Associates              -16883  Human Resources... …
# ℹ 532 more rows
…
3.7 Relation between y1 and y5 earnings

Code

pseoe_y1andy10 <- pseoe |>
                  filter(status_y1_earnings %in% c(1, 2, 4, 6, 7, 9, 10, 12)) |>
                  filter(status_y10_earnings %in% c(1, 2, 4, 6, 7, 9, 10, 12)) 
pseoe_y1andy10

# A tibble: 50,101 × 41
   agg_level_pseo inst_level institution degree_level cip_level cipcode
            <dbl> <chr>      <chr>       <chr>        <chr>     <chr>  
 1             46 I          00105100    05           2         09     
 2             46 I          00105100    07           2         09     
 3             46 I          00105100    05           2         11     
 4             46 I          00105100    07           2         11     
 5             46 I          00105100    05           2         13     
 6             46 I          00105100    07           2         13     
 7             46 I          00105100    17           2         13     
 8             46 I          00105100    05           2         14     
 9             46 I          00105100    07           2         14     
10             46 I          00105100    17           2         14     
# ℹ 50,091 more rows
# ℹ 35 more variables: grad_cohort <chr>, grad_cohort_years <dbl>,
#   geo_level <chr>, geography <chr>, ind_level <chr>, industry <chr>,
#   y1_p25_earnings <dbl>, y1_p50_earnings <dbl>, y1_p75_earnings <dbl>,
#   y1_grads_earn <dbl>, y5_p25_earnings <dbl>, y5_p50_earnings <dbl>,
#   y5_p75_earnings <dbl>, y5_grads_earn <dbl>, y10_p25_earnings <dbl>,
#   y10_p50_earnings <dbl>, y10_p75_earnings <dbl>, y10_grads_earn <dbl>, …
…
